com/fluidnotions/controller/Response.class
com/fluidnotions/controller/WebSocketController.class
com/fluidnotions/entities/Employee.class
com/fluidnotions/entities/Employee$Gender.class
com/fluidnotions/repositories/EmployeeRepository.class
com/fluidnotions/DemoApplication.class
com/fluidnotions/AppWebSocketConfig.class
com/fluidnotions/controller/Message$Origin.class
com/fluidnotions/controller/Message.class
com/fluidnotions/controller/MainController.class
